^F:\VISUAL STUDIO\HW_13\MAIN.CPP
C:\WINDOWS\GLOBALIZATION\SORTING\SORTDEFAULT.NLS
F:\PROGRAM FILES (X86)\VISUAL STUDIO\VC\TOOLS\MSVC\14.27.29110\BIN\HOSTX86\X86\1049\CLUI.DLL
C:\WINDOWS\SYSTEM32\TZRES.DLL
F:\PROGRAM FILES (X86)\VISUAL STUDIO\VC\TOOLS\MSVC\14.27.29110\INCLUDE\IOSTREAM
F:\PROGRAM FILES (X86)\VISUAL STUDIO\VC\TOOLS\MSVC\14.27.29110\INCLUDE\YVALS_CORE.H
F:\PROGRAM FILES (X86)\VISUAL STUDIO\VC\TOOLS\MSVC\14.27.29110\INCLUDE\VCRUNTIME.H
F:\PROGRAM FILES (X86)\VISUAL STUDIO\VC\TOOLS\MSVC\14.27.29110\INCLUDE\SAL.H
F:\PROGRAM FILES (X86)\VISUAL STUDIO\VC\TOOLS\MSVC\14.27.29110\INCLUDE\CONCURRENCYSAL.H
F:\PROGRAM FILES (X86)\VISUAL STUDIO\VC\TOOLS\MSVC\14.27.29110\INCLUDE\VADEFS.H
F:\PROGRAM FILES (X86)\VISUAL STUDIO\VC\TOOLS\MSVC\14.27.29110\INCLUDE\XKEYCHECK.H
F:\PROGRAM FILES (X86)\VISUAL STUDIO\VC\TOOLS\MSVC\14.27.29110\INCLUDE\ISTREAM
F:\PROGRAM FILES (X86)\VISUAL STUDIO\VC\TOOLS\MSVC\14.27.29110\INCLUDE\OSTREAM
F:\PROGRAM FILES (X86)\VISUAL STUDIO\VC\TOOLS\MSVC\14.27.29110\INCLUDE\IOS
F:\PROGRAM FILES (X86)\VISUAL STUDIO\VC\TOOLS\MSVC\14.27.29110\INCLUDE\XLOCNUM
F:\PROGRAM FILES (X86)\VISUAL STUDIO\VC\TOOLS\MSVC\14.27.29110\INCLUDE\CLIMITS
F:\PROGRAM FILES (X86)\VISUAL STUDIO\VC\TOOLS\MSVC\14.27.29110\INCLUDE\LIMITS.H
F:\PROGRAM FILES (X86)\VISUAL STUDIO\VC\TOOLS\MSVC\14.27.29110\INCLUDE\CMATH
F:\PROGRAM FILES (X86)\VISUAL STUDIO\VC\TOOLS\MSVC\14.27.29110\INCLUDE\YVALS.H
C:\PROGRAM FILES (X86)\WINDOWS KITS\10\INCLUDE\10.0.18362.0\UCRT\CRTDBG.H
C:\PROGRAM FILES (X86)\WINDOWS KITS\10\INCLUDE\10.0.18362.0\UCRT\CORECRT.H
F:\PROGRAM FILES (X86)\VISUAL STUDIO\VC\TOOLS\MSVC\14.27.29110\INCLUDE\VCRUNTIME_NEW_DEBUG.H
F:\PROGRAM FILES (X86)\VISUAL STUDIO\VC\TOOLS\MSVC\14.27.29110\INCLUDE\VCRUNTIME_NEW.H
F:\PROGRAM FILES (X86)\VISUAL STUDIO\VC\TOOLS\MSVC\14.27.29110\INCLUDE\CRTDEFS.H
F:\PROGRAM FILES (X86)\VISUAL STUDIO\VC\TOOLS\MSVC\14.27.29110\INCLUDE\USE_ANSI.H
F:\PROGRAM FILES (X86)\VISUAL STUDIO\VC\TOOLS\MSVC\14.27.29110\INCLUDE\CSTDLIB
C:\PROGRAM FILES (X86)\WINDOWS KITS\10\INCLUDE\10.0.18362.0\UCRT\MATH.H
C:\PROGRAM FILES (X86)\WINDOWS KITS\10\INCLUDE\10.0.18362.0\UCRT\CORECRT_MATH.H
C:\PROGRAM FILES (X86)\WINDOWS KITS\10\INCLUDE\10.0.18362.0\UCRT\STDLIB.H
C:\PROGRAM FILES (X86)\WINDOWS KITS\10\INCLUDE\10.0.18362.0\UCRT\CORECRT_MALLOC.H
C:\PROGRAM FILES (X86)\WINDOWS KITS\10\INCLUDE\10.0.18362.0\UCRT\CORECRT_SEARCH.H
C:\PROGRAM FILES (X86)\WINDOWS KITS\10\INCLUDE\10.0.18362.0\UCRT\STDDEF.H
C:\PROGRAM FILES (X86)\WINDOWS KITS\10\INCLUDE\10.0.18362.0\UCRT\CORECRT_WSTDLIB.H
F:\PROGRAM FILES (X86)\VISUAL STUDIO\VC\TOOLS\MSVC\14.27.29110\INCLUDE\XTR1COMMON
F:\PROGRAM FILES (X86)\VISUAL STUDIO\VC\TOOLS\MSVC\14.27.29110\INCLUDE\CSTDIO
C:\PROGRAM FILES (X86)\WINDOWS KITS\10\INCLUDE\10.0.18362.0\UCRT\STDIO.H
C:\PROGRAM FILES (X86)\WINDOWS KITS\10\INCLUDE\10.0.18362.0\UCRT\CORECRT_WSTDIO.H
C:\PROGRAM FILES (X86)\WINDOWS KITS\10\INCLUDE\10.0.18362.0\UCRT\CORECRT_STDIO_CONFIG.H
F:\PROGRAM FILES (X86)\VISUAL STUDIO\VC\TOOLS\MSVC\14.27.29110\INCLUDE\ITERATOR
F:\PROGRAM FILES (X86)\VISUAL STUDIO\VC\TOOLS\MSVC\14.27.29110\INCLUDE\IOSFWD
F:\PROGRAM FILES (X86)\VISUAL STUDIO\VC\TOOLS\MSVC\14.27.29110\INCLUDE\CSTRING
C:\PROGRAM FILES (X86)\WINDOWS KITS\10\INCLUDE\10.0.18362.0\UCRT\STRING.H
C:\PROGRAM FILES (X86)\WINDOWS KITS\10\INCLUDE\10.0.18362.0\UCRT\CORECRT_MEMORY.H
C:\PROGRAM FILES (X86)\WINDOWS KITS\10\INCLUDE\10.0.18362.0\UCRT\CORECRT_MEMCPY_S.H
C:\PROGRAM FILES (X86)\WINDOWS KITS\10\INCLUDE\10.0.18362.0\UCRT\ERRNO.H
F:\PROGRAM FILES (X86)\VISUAL STUDIO\VC\TOOLS\MSVC\14.27.29110\INCLUDE\VCRUNTIME_STRING.H
C:\PROGRAM FILES (X86)\WINDOWS KITS\10\INCLUDE\10.0.18362.0\UCRT\CORECRT_WSTRING.H
F:\PROGRAM FILES (X86)\VISUAL STUDIO\VC\TOOLS\MSVC\14.27.29110\INCLUDE\CWCHAR
C:\PROGRAM FILES (X86)\WINDOWS KITS\10\INCLUDE\10.0.18362.0\UCRT\WCHAR.H
C:\PROGRAM FILES (X86)\WINDOWS KITS\10\INCLUDE\10.0.18362.0\UCRT\CORECRT_WCONIO.H
C:\PROGRAM FILES (X86)\WINDOWS KITS\10\INCLUDE\10.0.18362.0\UCRT\CORECRT_WCTYPE.H
C:\PROGRAM FILES (X86)\WINDOWS KITS\10\INCLUDE\10.0.18362.0\UCRT\CORECRT_WDIRECT.H
C:\PROGRAM FILES (X86)\WINDOWS KITS\10\INCLUDE\10.0.18362.0\UCRT\CORECRT_WIO.H
C:\PROGRAM FILES (X86)\WINDOWS KITS\10\INCLUDE\10.0.18362.0\UCRT\CORECRT_SHARE.H
C:\PROGRAM FILES (X86)\WINDOWS KITS\10\INCLUDE\10.0.18362.0\UCRT\CORECRT_WPROCESS.H
C:\PROGRAM FILES (X86)\WINDOWS KITS\10\INCLUDE\10.0.18362.0\UCRT\CORECRT_WTIME.H
C:\PROGRAM FILES (X86)\WINDOWS KITS\10\INCLUDE\10.0.18362.0\UCRT\SYS\STAT.H
C:\PROGRAM FILES (X86)\WINDOWS KITS\10\INCLUDE\10.0.18362.0\UCRT\SYS\TYPES.H
F:\PROGRAM FILES (X86)\VISUAL STUDIO\VC\TOOLS\MSVC\14.27.29110\INCLUDE\XSTDDEF
F:\PROGRAM FILES (X86)\VISUAL STUDIO\VC\TOOLS\MSVC\14.27.29110\INCLUDE\CSTDDEF
F:\PROGRAM FILES (X86)\VISUAL STUDIO\VC\TOOLS\MSVC\14.27.29110\INCLUDE\INITIALIZER_LIST
F:\PROGRAM FILES (X86)\VISUAL STUDIO\VC\TOOLS\MSVC\14.27.29110\INCLUDE\XUTILITY
F:\PROGRAM FILES (X86)\VISUAL STUDIO\VC\TOOLS\MSVC\14.27.29110\INCLUDE\UTILITY
F:\PROGRAM FILES (X86)\VISUAL STUDIO\VC\TOOLS\MSVC\14.27.29110\INCLUDE\TYPE_TRAITS
F:\PROGRAM FILES (X86)\VISUAL STUDIO\VC\TOOLS\MSVC\14.27.29110\INCLUDE\STREAMBUF
F:\PROGRAM FILES (X86)\VISUAL STUDIO\VC\TOOLS\MSVC\14.27.29110\INCLUDE\XIOSBASE
C:\PROGRAM FILES (X86)\WINDOWS KITS\10\INCLUDE\10.0.18362.0\UCRT\SHARE.H
F:\PROGRAM FILES (X86)\VISUAL STUDIO\VC\TOOLS\MSVC\14.27.29110\INCLUDE\SYSTEM_ERROR
F:\PROGRAM FILES (X86)\VISUAL STUDIO\VC\TOOLS\MSVC\14.27.29110\INCLUDE\__MSVC_SYSTEM_ERROR_ABI.HPP
F:\PROGRAM FILES (X86)\VISUAL STUDIO\VC\TOOLS\MSVC\14.27.29110\INCLUDE\CERRNO
F:\PROGRAM FILES (X86)\VISUAL STUDIO\VC\TOOLS\MSVC\14.27.29110\INCLUDE\STDEXCEPT
F:\PROGRAM FILES (X86)\VISUAL STUDIO\VC\TOOLS\MSVC\14.27.29110\INCLUDE\EXCEPTION
C:\PROGRAM FILES (X86)\WINDOWS KITS\10\INCLUDE\10.0.18362.0\UCRT\MALLOC.H
F:\PROGRAM FILES (X86)\VISUAL STUDIO\VC\TOOLS\MSVC\14.27.29110\INCLUDE\VCRUNTIME_EXCEPTION.H
F:\PROGRAM FILES (X86)\VISUAL STUDIO\VC\TOOLS\MSVC\14.27.29110\INCLUDE\EH.H
C:\PROGRAM FILES (X86)\WINDOWS KITS\10\INCLUDE\10.0.18362.0\UCRT\CORECRT_TERMINATE.H
F:\PROGRAM FILES (X86)\VISUAL STUDIO\VC\TOOLS\MSVC\14.27.29110\INCLUDE\XSTRING
F:\PROGRAM FILES (X86)\VISUAL STUDIO\VC\TOOLS\MSVC\14.27.29110\INCLUDE\XMEMORY
F:\PROGRAM FILES (X86)\VISUAL STUDIO\VC\TOOLS\MSVC\14.27.29110\INCLUDE\CSTDINT
F:\PROGRAM FILES (X86)\VISUAL STUDIO\VC\TOOLS\MSVC\14.27.29110\INCLUDE\STDINT.H
F:\PROGRAM FILES (X86)\VISUAL STUDIO\VC\TOOLS\MSVC\14.27.29110\INCLUDE\LIMITS
F:\PROGRAM FILES (X86)\VISUAL STUDIO\VC\TOOLS\MSVC\14.27.29110\INCLUDE\CFLOAT
C:\PROGRAM FILES (X86)\WINDOWS KITS\10\INCLUDE\10.0.18362.0\UCRT\FLOAT.H
F:\PROGRAM FILES (X86)\VISUAL STUDIO\VC\TOOLS\MSVC\14.27.29110\INCLUDE\NEW
F:\PROGRAM FILES (X86)\VISUAL STUDIO\VC\TOOLS\MSVC\14.27.29110\INCLUDE\XATOMIC.H
F:\PROGRAM FILES (X86)\VISUAL STUDIO\VC\TOOLS\MSVC\14.27.29110\INCLUDE\INTRIN0.H
F:\PROGRAM FILES (X86)\VISUAL STUDIO\VC\TOOLS\MSVC\14.27.29110\INCLUDE\XCALL_ONCE.H
F:\PROGRAM FILES (X86)\VISUAL STUDIO\VC\TOOLS\MSVC\14.27.29110\INCLUDE\XERRC.H
F:\PROGRAM FILES (X86)\VISUAL STUDIO\VC\TOOLS\MSVC\14.27.29110\INCLUDE\ATOMIC
F:\PROGRAM FILES (X86)\VISUAL STUDIO\VC\TOOLS\MSVC\14.27.29110\INCLUDE\XLOCALE
F:\PROGRAM FILES (X86)\VISUAL STUDIO\VC\TOOLS\MSVC\14.27.29110\INCLUDE\MEMORY
F:\PROGRAM FILES (X86)\VISUAL STUDIO\VC\TOOLS\MSVC\14.27.29110\INCLUDE\TYPEINFO
F:\PROGRAM FILES (X86)\VISUAL STUDIO\VC\TOOLS\MSVC\14.27.29110\INCLUDE\VCRUNTIME_TYPEINFO.H
F:\PROGRAM FILES (X86)\VISUAL STUDIO\VC\TOOLS\MSVC\14.27.29110\INCLUDE\XFACET
F:\PROGRAM FILES (X86)\VISUAL STUDIO\VC\TOOLS\MSVC\14.27.29110\INCLUDE\XLOCINFO
F:\PROGRAM FILES (X86)\VISUAL STUDIO\VC\TOOLS\MSVC\14.27.29110\INCLUDE\XLOCINFO.H
C:\PROGRAM FILES (X86)\WINDOWS KITS\10\INCLUDE\10.0.18362.0\UCRT\CTYPE.H
C:\PROGRAM FILES (X86)\WINDOWS KITS\10\INCLUDE\10.0.18362.0\UCRT\LOCALE.H
F:\VISUAL STUDIO\HW_13\HELPERS.H
